# This file uses centimeters as units for non-parametric coordinates.

mtllib obstacle.mtl
g default
v -0.100000 -0.987688 -0.256435
v -0.148341 -0.987688 -0.248778
v -0.191950 -0.987688 -0.226558
v -0.226558 -0.987688 -0.191950
v -0.248778 -0.987688 -0.148341
v -0.256435 -0.987688 -0.100000
v -0.100000 -0.951057 -0.409017
v -0.195492 -0.951057 -0.393893
v -0.281636 -0.951057 -0.350000
v -0.350000 -0.951057 -0.281636
v -0.393893 -0.951057 -0.195492
v -0.409017 -0.951057 -0.100000
v -0.100000 -0.891007 -0.553991
v -0.240291 -0.891007 -0.531771
v -0.366849 -0.891007 -0.467286
v -0.467286 -0.891007 -0.366849
v -0.531771 -0.891007 -0.240291
v -0.553991 -0.891007 -0.100000
v -0.100000 -0.809017 -0.687786
v -0.281636 -0.809017 -0.659017
v -0.445492 -0.809017 -0.575528
v -0.575528 -0.809017 -0.445492
v -0.659017 -0.809017 -0.281636
v -0.687785 -0.809017 -0.100000
v -0.100000 -0.707107 -0.807107
v -0.318508 -0.707107 -0.772499
v -0.515627 -0.707107 -0.672062
v -0.672062 -0.707107 -0.515627
v -0.772499 -0.707107 -0.318508
v -0.807107 -0.707107 -0.100000
v -0.100000 -0.587785 -0.909017
v -0.350000 -0.587785 -0.869421
v -0.575528 -0.587785 -0.754509
v -0.754509 -0.587785 -0.575528
v -0.869421 -0.587785 -0.350000
v -0.909017 -0.587785 -0.100000
v -0.100000 -0.453991 -0.991007
v -0.375336 -0.453991 -0.947398
v -0.623721 -0.453991 -0.820840
v -0.820840 -0.453991 -0.623721
v -0.947398 -0.453991 -0.375336
v -0.991007 -0.453991 -0.100000
v -0.100000 -0.309017 -1.051057
v -0.393893 -0.309017 -1.004509
v -0.659017 -0.309017 -0.869421
v -0.869421 -0.309017 -0.659017
v -1.004509 -0.309017 -0.393893
v -1.051057 -0.309017 -0.100000
v -0.100000 -0.156434 -1.087689
v -0.405213 -0.156434 -1.039348
v -0.680549 -0.156434 -0.899057
v -0.899057 -0.156434 -0.680549
v -1.039348 -0.156434 -0.405213
v -1.087689 -0.156434 -0.100000
v -0.100000 0.000000 -1.100001
v -0.409017 0.000000 -1.051057
v -0.687786 0.000000 -0.909017
v -0.909017 0.000000 -0.687785
v -1.051057 0.000000 -0.409017
v -1.100000 0.000000 -0.100000
v -0.100000 0.156434 -1.087689
v -0.405213 0.156434 -1.039348
v -0.680549 0.156434 -0.899057
v -0.899057 0.156434 -0.680549
v -1.039348 0.156434 -0.405213
v -1.087689 0.156434 -0.100000
v -0.100000 0.309017 -1.051057
v -0.393893 0.309017 -1.004509
v -0.659017 0.309017 -0.869421
v -0.869421 0.309017 -0.659017
v -1.004509 0.309017 -0.393893
v -1.051057 0.309017 -0.100000
v -0.100000 0.453991 -0.991007
v -0.375336 0.453991 -0.947398
v -0.623721 0.453991 -0.820840
v -0.820840 0.453991 -0.623721
v -0.947398 0.453991 -0.375336
v -0.991007 0.453991 -0.100000
v -0.100000 0.587785 -0.909017
v -0.350000 0.587785 -0.869421
v -0.575528 0.587785 -0.754509
v -0.754509 0.587785 -0.575528
v -0.869421 0.587785 -0.350000
v -0.909017 0.587785 -0.100000
v -0.100000 0.707107 -0.807107
v -0.318508 0.707107 -0.772499
v -0.515627 0.707107 -0.672062
v -0.672062 0.707107 -0.515627
v -0.772499 0.707107 -0.318508
v -0.807107 0.707107 -0.100000
v -0.100000 0.809017 -0.687786
v -0.281636 0.809017 -0.659017
v -0.445492 0.809017 -0.575528
v -0.575528 0.809017 -0.445492
v -0.659017 0.809017 -0.281636
v -0.687785 0.809017 -0.100000
v -0.100000 0.891007 -0.553991
v -0.240291 0.891007 -0.531771
v -0.366849 0.891007 -0.467286
v -0.467286 0.891007 -0.366849
v -0.531771 0.891007 -0.240291
v -0.553991 0.891007 -0.100000
v -0.100000 0.951057 -0.409017
v -0.195492 0.951057 -0.393893
v -0.281636 0.951057 -0.350000
v -0.350000 0.951057 -0.281636
v -0.393893 0.951057 -0.195492
v -0.409017 0.951057 -0.100000
v -0.100000 0.987688 -0.256435
v -0.148341 0.987688 -0.248778
v -0.191950 0.987688 -0.226558
v -0.226558 0.987688 -0.191950
v -0.248778 0.987688 -0.148341
v -0.256435 0.987688 -0.100000
v -0.100000 -1.000000 -0.100000
v -0.100000 1.000000 -0.100000
v -0.003027 -0.923513 -0.142259
v -0.042059 -0.859339 -0.129444
v -0.080001 -0.859339 -0.110112
v -0.110112 -0.859339 -0.080001
v -0.129444 -0.859339 -0.042059
v -0.149297 -0.923513 0.004011
v -0.003027 -0.889262 -0.284928
v -0.083082 -0.827467 -0.255701
v -0.158032 -0.827467 -0.217513
v -0.217513 -0.827467 -0.158032
v -0.255701 -0.827467 -0.083082
v -0.291966 -0.889262 0.004011
v -0.003027 -0.833113 -0.420482
v -0.122060 -0.775220 -0.375662
v -0.232172 -0.775220 -0.319557
v -0.319557 -0.775220 -0.232172
v -0.375662 -0.775220 -0.122060
v -0.427520 -0.833113 0.004011
v -0.003027 -0.756451 -0.545583
v -0.158032 -0.703885 -0.486373
v -0.300595 -0.703885 -0.413734
v -0.413734 -0.703885 -0.300595
v -0.486373 -0.703885 -0.158032
v -0.552621 -0.756451 0.004011
v -0.003027 -0.661163 -0.657152
v -0.190113 -0.615218 -0.585108
v -0.361616 -0.615218 -0.497722
v -0.497722 -0.615218 -0.361616
v -0.585108 -0.615218 -0.190113
v -0.664190 -0.661163 0.004011
v -0.003027 -0.549594 -0.752441
v -0.217513 -0.511403 -0.669435
v -0.413734 -0.511403 -0.569456
v -0.569455 -0.511403 -0.413734
v -0.669435 -0.511403 -0.217513
v -0.759478 -0.549594 0.004011
v -0.003027 -0.424493 -0.829103
v -0.239556 -0.394995 -0.737279
v -0.455663 -0.394995 -0.627167
v -0.627167 -0.394995 -0.455663
v -0.737279 -0.394995 -0.239556
v -0.836141 -0.424493 0.004011
v -0.003027 -0.288939 -0.885251
v -0.255701 -0.268860 -0.786968
v -0.486373 -0.268860 -0.669435
v -0.669435 -0.268860 -0.486373
v -0.786968 -0.268860 -0.255701
v -0.892289 -0.288939 0.004011
v -0.003027 -0.146270 -0.919503
v -0.265550 -0.136106 -0.817280
v -0.505107 -0.136106 -0.695220
v -0.695220 -0.136106 -0.505107
v -0.817280 -0.136106 -0.265550
v -0.926541 -0.146270 0.004011
v -0.003027 -0.000000 -0.931015
v -0.268860 0.000000 -0.827467
v -0.511403 0.000000 -0.703886
v -0.703886 0.000000 -0.511403
v -0.827467 0.000000 -0.268860
v -0.938052 -0.000000 0.004011
v -0.003027 0.146270 -0.919503
v -0.265550 0.136106 -0.817280
v -0.505107 0.136106 -0.695220
v -0.695220 0.136106 -0.505107
v -0.817280 0.136106 -0.265550
v -0.926541 0.146270 0.004011
v -0.003027 0.288939 -0.885251
v -0.255701 0.268860 -0.786968
v -0.486373 0.268860 -0.669435
v -0.669435 0.268860 -0.486373
v -0.786968 0.268860 -0.255701
v -0.892289 0.288939 0.004011
v -0.003027 0.424493 -0.829103
v -0.239556 0.394995 -0.737279
v -0.455663 0.394995 -0.627167
v -0.627167 0.394995 -0.455663
v -0.737279 0.394995 -0.239556
v -0.836141 0.424493 0.004011
v -0.003027 0.549594 -0.752441
v -0.217513 0.511403 -0.669435
v -0.413734 0.511403 -0.569456
v -0.569455 0.511403 -0.413734
v -0.669435 0.511403 -0.217513
v -0.759478 0.549594 0.004011
v -0.003027 0.661163 -0.657152
v -0.190113 0.615218 -0.585108
v -0.361616 0.615218 -0.497722
v -0.497722 0.615218 -0.361616
v -0.585108 0.615218 -0.190113
v -0.664190 0.661163 0.004011
v -0.003027 0.756451 -0.545583
v -0.158032 0.703885 -0.486373
v -0.300595 0.703885 -0.413734
v -0.413734 0.703885 -0.300595
v -0.486373 0.703885 -0.158032
v -0.552621 0.756451 0.004011
v -0.003027 0.833113 -0.420482
v -0.122060 0.775220 -0.375662
v -0.232172 0.775220 -0.319557
v -0.319557 0.775220 -0.232172
v -0.375662 0.775220 -0.122060
v -0.427520 0.833113 0.004011
v -0.003027 0.889262 -0.284928
v -0.083082 0.827467 -0.255701
v -0.158032 0.827467 -0.217513
v -0.217513 0.827467 -0.158032
v -0.255701 0.827467 -0.083082
v -0.291966 0.889262 0.004011
v -0.003027 0.923513 -0.142259
v -0.042059 0.859339 -0.129444
v -0.080001 0.859339 -0.110112
v -0.110112 0.859339 -0.080001
v -0.129444 0.859339 -0.042059
v -0.149297 0.923513 0.004011
v -0.003027 -0.935025 0.004011
v -0.003027 0.935025 0.004011
vt 0.200000 0.050000
vt 0.250000 0.050000
vt 0.250000 0.100000
vt 0.200000 0.100000
vt 0.300000 0.050000
vt 0.300000 0.100000
vt 0.350000 0.050000
vt 0.350000 0.100000
vt 0.400000 0.050000
vt 0.400000 0.100000
vt 0.450000 0.050000
vt 0.450000 0.100000
vt 0.250000 0.150000
vt 0.200000 0.150000
vt 0.300000 0.150000
vt 0.350000 0.150000
vt 0.400000 0.150000
vt 0.450000 0.150000
vt 0.250000 0.200000
vt 0.200000 0.200000
vt 0.300000 0.200000
vt 0.350000 0.200000
vt 0.400000 0.200000
vt 0.450000 0.200000
vt 0.250000 0.250000
vt 0.200000 0.250000
vt 0.300000 0.250000
vt 0.350000 0.250000
vt 0.400000 0.250000
vt 0.450000 0.250000
vt 0.250000 0.300000
vt 0.200000 0.300000
vt 0.300000 0.300000
vt 0.350000 0.300000
vt 0.400000 0.300000
vt 0.450000 0.300000
vt 0.250000 0.350000
vt 0.200000 0.350000
vt 0.300000 0.350000
vt 0.350000 0.350000
vt 0.400000 0.350000
vt 0.450000 0.350000
vt 0.250000 0.400000
vt 0.200000 0.400000
vt 0.300000 0.400000
vt 0.350000 0.400000
vt 0.400000 0.400000
vt 0.450000 0.400000
vt 0.250000 0.450000
vt 0.200000 0.450000
vt 0.300000 0.450000
vt 0.350000 0.450000
vt 0.400000 0.450000
vt 0.450000 0.450000
vt 0.250000 0.500000
vt 0.200000 0.500000
vt 0.300000 0.500000
vt 0.350000 0.500000
vt 0.400000 0.500000
vt 0.450000 0.500000
vt 0.250000 0.550000
vt 0.200000 0.550000
vt 0.300000 0.550000
vt 0.350000 0.550000
vt 0.400000 0.550000
vt 0.450000 0.550000
vt 0.250000 0.600000
vt 0.200000 0.600000
vt 0.300000 0.600000
vt 0.350000 0.600000
vt 0.400000 0.600000
vt 0.450000 0.600000
vt 0.250000 0.650000
vt 0.200000 0.650000
vt 0.300000 0.650000
vt 0.350000 0.650000
vt 0.400000 0.650000
vt 0.450000 0.650000
vt 0.250000 0.700000
vt 0.200000 0.700000
vt 0.300000 0.700000
vt 0.350000 0.700000
vt 0.400000 0.700000
vt 0.450000 0.700000
vt 0.250000 0.750000
vt 0.200000 0.750000
vt 0.300000 0.750000
vt 0.350000 0.750000
vt 0.400000 0.750000
vt 0.450000 0.750000
vt 0.250000 0.800000
vt 0.200000 0.800000
vt 0.300000 0.800000
vt 0.350000 0.800000
vt 0.400000 0.800000
vt 0.450000 0.800000
vt 0.250000 0.850000
vt 0.200000 0.850000
vt 0.300000 0.850000
vt 0.350000 0.850000
vt 0.400000 0.850000
vt 0.450000 0.850000
vt 0.250000 0.900000
vt 0.200000 0.900000
vt 0.300000 0.900000
vt 0.350000 0.900000
vt 0.400000 0.900000
vt 0.450000 0.900000
vt 0.250000 0.950000
vt 0.200000 0.950000
vt 0.300000 0.950000
vt 0.350000 0.950000
vt 0.400000 0.950000
vt 0.450000 0.950000
vt 0.225000 0.000000
vt 0.275000 0.000000
vt 0.325000 0.000000
vt 0.375000 0.000000
vt 0.425000 0.000000
vt 0.225000 1.000000
vt 0.275000 1.000000
vt 0.325000 1.000000
vt 0.375000 1.000000
vt 0.425000 1.000000
vt 0.200000 0.050000
vt 0.250000 0.050000
vt 0.250000 0.100000
vt 0.200000 0.100000
vt 0.300000 0.050000
vt 0.300000 0.100000
vt 0.350000 0.050000
vt 0.350000 0.100000
vt 0.400000 0.050000
vt 0.400000 0.100000
vt 0.450000 0.050000
vt 0.450000 0.100000
vt 0.250000 0.150000
vt 0.200000 0.150000
vt 0.300000 0.150000
vt 0.350000 0.150000
vt 0.400000 0.150000
vt 0.450000 0.150000
vt 0.250000 0.200000
vt 0.200000 0.200000
vt 0.300000 0.200000
vt 0.350000 0.200000
vt 0.400000 0.200000
vt 0.450000 0.200000
vt 0.250000 0.250000
vt 0.200000 0.250000
vt 0.300000 0.250000
vt 0.350000 0.250000
vt 0.400000 0.250000
vt 0.450000 0.250000
vt 0.250000 0.300000
vt 0.200000 0.300000
vt 0.300000 0.300000
vt 0.350000 0.300000
vt 0.400000 0.300000
vt 0.450000 0.300000
vt 0.250000 0.350000
vt 0.200000 0.350000
vt 0.300000 0.350000
vt 0.350000 0.350000
vt 0.400000 0.350000
vt 0.450000 0.350000
vt 0.250000 0.400000
vt 0.200000 0.400000
vt 0.300000 0.400000
vt 0.350000 0.400000
vt 0.400000 0.400000
vt 0.450000 0.400000
vt 0.250000 0.450000
vt 0.200000 0.450000
vt 0.300000 0.450000
vt 0.350000 0.450000
vt 0.400000 0.450000
vt 0.450000 0.450000
vt 0.250000 0.500000
vt 0.200000 0.500000
vt 0.300000 0.500000
vt 0.350000 0.500000
vt 0.400000 0.500000
vt 0.450000 0.500000
vt 0.250000 0.550000
vt 0.200000 0.550000
vt 0.300000 0.550000
vt 0.350000 0.550000
vt 0.400000 0.550000
vt 0.450000 0.550000
vt 0.250000 0.600000
vt 0.200000 0.600000
vt 0.300000 0.600000
vt 0.350000 0.600000
vt 0.400000 0.600000
vt 0.450000 0.600000
vt 0.250000 0.650000
vt 0.200000 0.650000
vt 0.300000 0.650000
vt 0.350000 0.650000
vt 0.400000 0.650000
vt 0.450000 0.650000
vt 0.250000 0.700000
vt 0.200000 0.700000
vt 0.300000 0.700000
vt 0.350000 0.700000
vt 0.400000 0.700000
vt 0.450000 0.700000
vt 0.250000 0.750000
vt 0.200000 0.750000
vt 0.300000 0.750000
vt 0.350000 0.750000
vt 0.400000 0.750000
vt 0.450000 0.750000
vt 0.250000 0.800000
vt 0.200000 0.800000
vt 0.300000 0.800000
vt 0.350000 0.800000
vt 0.400000 0.800000
vt 0.450000 0.800000
vt 0.250000 0.850000
vt 0.200000 0.850000
vt 0.300000 0.850000
vt 0.350000 0.850000
vt 0.400000 0.850000
vt 0.450000 0.850000
vt 0.250000 0.900000
vt 0.200000 0.900000
vt 0.300000 0.900000
vt 0.350000 0.900000
vt 0.400000 0.900000
vt 0.450000 0.900000
vt 0.250000 0.950000
vt 0.200000 0.950000
vt 0.300000 0.950000
vt 0.350000 0.950000
vt 0.400000 0.950000
vt 0.450000 0.950000
vt 0.225000 0.000000
vt 0.275000 0.000000
vt 0.325000 0.000000
vt 0.375000 0.000000
vt 0.425000 0.000000
vt 0.225000 1.000000
vt 0.275000 1.000000
vt 0.325000 1.000000
vt 0.375000 1.000000
vt 0.425000 1.000000
vt 0.000000 0.000000
vt 1.000000 0.000000
vt 1.000000 1.000000
vt 0.000000 1.000000
vt 0.000000 0.000000
vt 1.000000 0.000000
vt 1.000000 1.000000
vt 0.000000 1.000000
vt 0.000000 0.000000
vt 1.000000 0.000000
vt 1.000000 1.000000
vt 0.000000 1.000000
vt 0.000000 0.000000
vt 1.000000 0.000000
vt 1.000000 1.000000
vt 0.000000 1.000000
vt 0.000000 0.000000
vt 1.000000 0.000000
vt 1.000000 1.000000
vt 0.000000 1.000000
vt 0.000000 0.000000
vt 1.000000 0.000000
vt 1.000000 1.000000
vt 0.000000 1.000000
vt 0.000000 0.000000
vt 1.000000 0.000000
vt 1.000000 1.000000
vt 0.000000 1.000000
vt 0.000000 0.000000
vt 1.000000 0.000000
vt 1.000000 1.000000
vt 0.000000 1.000000
vt 0.000000 0.000000
vt 1.000000 0.000000
vt 1.000000 1.000000
vt 0.000000 1.000000
vt 0.000000 0.000000
vt 1.000000 0.000000
vt 1.000000 1.000000
vt 0.000000 1.000000
vt 0.000000 0.000000
vt 1.000000 0.000000
vt 1.000000 1.000000
vt 0.000000 1.000000
vt 0.000000 0.000000
vt 1.000000 0.000000
vt 1.000000 1.000000
vt 0.000000 1.000000
vt 0.000000 0.000000
vt 1.000000 0.000000
vt 1.000000 1.000000
vt 0.000000 1.000000
vt 0.000000 0.000000
vt 1.000000 0.000000
vt 1.000000 1.000000
vt 0.000000 1.000000
vt 0.000000 0.000000
vt 1.000000 0.000000
vt 1.000000 1.000000
vt 0.000000 1.000000
vt 0.000000 0.000000
vt 1.000000 0.000000
vt 1.000000 1.000000
vt 0.000000 1.000000
vt 0.000000 0.000000
vt 1.000000 0.000000
vt 1.000000 1.000000
vt 0.000000 1.000000
vt 0.000000 0.000000
vt 1.000000 0.000000
vt 1.000000 1.000000
vt 0.000000 1.000000
vt 0.000000 0.000000
vt 1.000000 0.000000
vt 1.000000 1.000000
vt 0.000000 1.000000
vt 0.000000 0.000000
vt 1.000000 0.000000
vt 1.000000 1.000000
vt 0.000000 1.000000
vt 0.000000 0.000000
vt 1.000000 0.000000
vt 1.000000 1.000000
vt 0.000000 1.000000
vt 0.000000 0.000000
vt 1.000000 0.000000
vt 1.000000 1.000000
vt 0.000000 1.000000
vt 0.000000 0.000000
vt 1.000000 0.000000
vt 1.000000 1.000000
vt 0.000000 1.000000
vt 0.000000 0.000000
vt 1.000000 0.000000
vt 1.000000 1.000000
vt 0.000000 1.000000
vt 0.000000 0.000000
vt 1.000000 0.000000
vt 1.000000 1.000000
vt 0.000000 1.000000
vt 0.000000 0.000000
vt 1.000000 0.000000
vt 1.000000 1.000000
vt 0.000000 1.000000
vt 0.000000 0.000000
vt 1.000000 0.000000
vt 1.000000 1.000000
vt 0.000000 1.000000
vt 0.000000 0.000000
vt 1.000000 0.000000
vt 1.000000 1.000000
vt 0.000000 1.000000
vt 0.000000 0.000000
vt 1.000000 0.000000
vt 1.000000 1.000000
vt 0.000000 1.000000
vt 0.000000 0.000000
vt 1.000000 0.000000
vt 1.000000 1.000000
vt 0.000000 1.000000
vt 0.000000 0.000000
vt 1.000000 0.000000
vt 1.000000 1.000000
vt 0.000000 1.000000
vt 0.000000 0.000000
vt 1.000000 0.000000
vt 1.000000 1.000000
vt 0.000000 1.000000
vt 0.000000 0.000000
vt 1.000000 0.000000
vt 1.000000 1.000000
vt 0.000000 1.000000
vt 0.000000 0.000000
vt 1.000000 0.000000
vt 1.000000 1.000000
vt 0.000000 1.000000
vt 0.000000 0.000000
vt 1.000000 0.000000
vt 1.000000 1.000000
vt 0.000000 1.000000
vt 0.000000 0.000000
vt 1.000000 0.000000
vt 1.000000 1.000000
vt 0.000000 1.000000
vt 0.000000 0.000000
vt 1.000000 0.000000
vt 1.000000 1.000000
vt 0.000000 1.000000
vt 0.000000 0.000000
vt 1.000000 0.000000
vt 1.000000 1.000000
vt 0.000000 1.000000
vt 0.000000 0.000000
vt 1.000000 0.000000
vt 1.000000 1.000000
vt 0.000000 1.000000
vt 0.000000 0.000000
vt 1.000000 0.000000
vt 1.000000 1.000000
vt 0.000000 1.000000
vn -0.031718 -0.979229 -0.200261
vn -0.061915 -0.979722 -0.190555
vn -0.103081 -0.942722 -0.317252
vn -0.052760 -0.941410 -0.333113
vn -0.117769 -0.979722 -0.162096
vn -0.196072 -0.942722 -0.269870
vn -0.162096 -0.979722 -0.117770
vn -0.269870 -0.942722 -0.196072
vn -0.190555 -0.979722 -0.061916
vn -0.317252 -0.942722 -0.103081
vn -0.200260 -0.979229 -0.031719
vn -0.333113 -0.941409 -0.052761
vn -0.145470 -0.882266 -0.447711
vn -0.074353 -0.879824 -0.469448
vn -0.276701 -0.882266 -0.380846
vn -0.380846 -0.882266 -0.276701
vn -0.447712 -0.882266 -0.145470
vn -0.469449 -0.879824 -0.074353
vn -0.185306 -0.800252 -0.570314
vn -0.094552 -0.796667 -0.596977
vn -0.352474 -0.800252 -0.485138
vn -0.485138 -0.800252 -0.352474
vn -0.570314 -0.800252 -0.185306
vn -0.596978 -0.796667 -0.094552
vn -0.221049 -0.698788 -0.680318
vn -0.112577 -0.694346 -0.710781
vn -0.420460 -0.698788 -0.578713
vn -0.578713 -0.698789 -0.420460
vn -0.680318 -0.698789 -0.221049
vn -0.710781 -0.694346 -0.112576
vn -0.251642 -0.580401 -0.774475
vn -0.127918 -0.575633 -0.807641
vn -0.478652 -0.580401 -0.658808
vn -0.658808 -0.580401 -0.478652
vn -0.774475 -0.580401 -0.251642
vn -0.807641 -0.575633 -0.127918
vn -0.276273 -0.447994 -0.850279
vn -0.140203 -0.443569 -0.885206
vn -0.525502 -0.447994 -0.723291
vn -0.723291 -0.447994 -0.525501
vn -0.850280 -0.447993 -0.276272
vn -0.885206 -0.443568 -0.140203
vn -0.294314 -0.304789 -0.905805
vn -0.149161 -0.301379 -0.941765
vn -0.559819 -0.304789 -0.770524
vn -0.770524 -0.304789 -0.559818
vn -0.905805 -0.304788 -0.294314
vn -0.941765 -0.301378 -0.149161
vn -0.305319 -0.154249 -0.939674
vn -0.154607 -0.152394 -0.976152
vn -0.580751 -0.154249 -0.799335
vn -0.799335 -0.154249 -0.580750
vn -0.939674 -0.154249 -0.305319
vn -0.976152 -0.152394 -0.154607
vn -0.309017 0.000000 -0.951056
vn -0.156434 0.000000 -0.987688
vn -0.587786 0.000000 -0.809017
vn -0.809017 0.000000 -0.587785
vn -0.951057 -0.000000 -0.309017
vn -0.987688 0.000000 -0.156435
vn -0.305319 0.154249 -0.939674
vn -0.154607 0.152394 -0.976152
vn -0.580751 0.154249 -0.799335
vn -0.799335 0.154249 -0.580751
vn -0.939674 0.154249 -0.305319
vn -0.976152 0.152394 -0.154607
vn -0.294314 0.304789 -0.905805
vn -0.149161 0.301379 -0.941765
vn -0.559819 0.304789 -0.770524
vn -0.770524 0.304789 -0.559818
vn -0.905805 0.304788 -0.294314
vn -0.941765 0.301378 -0.149161
vn -0.276273 0.447994 -0.850279
vn -0.140203 0.443569 -0.885206
vn -0.525502 0.447994 -0.723291
vn -0.723291 0.447994 -0.525501
vn -0.850280 0.447993 -0.276272
vn -0.885206 0.443568 -0.140203
vn -0.251642 0.580401 -0.774475
vn -0.127918 0.575633 -0.807641
vn -0.478652 0.580401 -0.658808
vn -0.658808 0.580401 -0.478652
vn -0.774475 0.580401 -0.251642
vn -0.807641 0.575633 -0.127918
vn -0.221049 0.698789 -0.680318
vn -0.112577 0.694346 -0.710781
vn -0.420460 0.698789 -0.578713
vn -0.578713 0.698789 -0.420459
vn -0.680318 0.698789 -0.221049
vn -0.710781 0.694346 -0.112576
vn -0.185306 0.800252 -0.570314
vn -0.094552 0.796667 -0.596977
vn -0.352474 0.800252 -0.485138
vn -0.485138 0.800252 -0.352474
vn -0.570314 0.800252 -0.185306
vn -0.596978 0.796667 -0.094552
vn -0.145470 0.882266 -0.447711
vn -0.074353 0.879824 -0.469449
vn -0.276701 0.882266 -0.380846
vn -0.380846 0.882266 -0.276701
vn -0.447712 0.882266 -0.145470
vn -0.469449 0.879824 -0.074353
vn -0.103081 0.942722 -0.317251
vn -0.052760 0.941410 -0.333113
vn -0.196072 0.942723 -0.269870
vn -0.269870 0.942722 -0.196072
vn -0.317252 0.942722 -0.103081
vn -0.333113 0.941409 -0.052761
vn -0.061915 0.979722 -0.190555
vn -0.031718 0.979229 -0.200260
vn -0.117769 0.979722 -0.162096
vn -0.162096 0.979722 -0.117769
vn -0.190555 0.979722 -0.061915
vn -0.200260 0.979229 -0.031719
vn -0.050805 -0.997415 -0.050805
vn -0.050805 0.997416 -0.050805
vn -0.774619 -0.630423 -0.050329
vn -0.547836 -0.823432 -0.147767
vn -0.443756 -0.863935 -0.238110
vn -0.638243 -0.750215 -0.172695
vn -0.173573 -0.955235 -0.239580
vn -0.196072 -0.942722 -0.269870
vn -0.239665 -0.955018 -0.174647
vn -0.269870 -0.942723 -0.196072
vn -0.152544 -0.836010 -0.527085
vn -0.238485 -0.867052 -0.437431
vn -0.061820 -0.675235 -0.735007
vn -0.183981 -0.768626 -0.612671
vn -0.381214 -0.838539 -0.389267
vn -0.511785 -0.784917 -0.349257
vn -0.276701 -0.882266 -0.380846
vn -0.380846 -0.882266 -0.276701
vn -0.388265 -0.838784 -0.381697
vn -0.353374 -0.788211 -0.503836
vn -0.365921 -0.770732 -0.521608
vn -0.443359 -0.743069 -0.501279
vn -0.352474 -0.800252 -0.485138
vn -0.485139 -0.800252 -0.352474
vn -0.520027 -0.770259 -0.369151
vn -0.501452 -0.742138 -0.444722
vn -0.368844 -0.677172 -0.636705
vn -0.405873 -0.661597 -0.630520
vn -0.420460 -0.698789 -0.578712
vn -0.578713 -0.698789 -0.420459
vn -0.634781 -0.676495 -0.373372
vn -0.628464 -0.659592 -0.412275
vn -0.378548 -0.564301 -0.733666
vn -0.385161 -0.554831 -0.737437
vn -0.478652 -0.580401 -0.658808
vn -0.658808 -0.580401 -0.478652
vn -0.731490 -0.563613 -0.383749
vn -0.734051 -0.552796 -0.394442
vn -0.389590 -0.436390 -0.811038
vn -0.373828 -0.430374 -0.821603
vn -0.525502 -0.447994 -0.723291
vn -0.723291 -0.447994 -0.525501
vn -0.808663 -0.435795 -0.395154
vn -0.817398 -0.428697 -0.384810
vn -0.399048 -0.297219 -0.867422
vn -0.367848 -0.293532 -0.882342
vn -0.559819 -0.304789 -0.770524
vn -0.770524 -0.304789 -0.559818
vn -0.864898 -0.296785 -0.404808
vn -0.877642 -0.292365 -0.379825
vn -0.405286 -0.150504 -0.901716
vn -0.365003 -0.148723 -0.919051
vn -0.580751 -0.154249 -0.799335
vn -0.799335 -0.154249 -0.580751
vn -0.899099 -0.150276 -0.411142
vn -0.914083 -0.148128 -0.377505
vn -0.407453 0.000000 -0.913226
vn -0.364170 0.000000 -0.931333
vn -0.587785 0.000000 -0.809017
vn -0.809017 0.000000 -0.587785
vn -0.910577 0.000000 -0.413339
vn -0.926280 -0.000000 -0.376835
vn -0.405286 0.150504 -0.901716
vn -0.365003 0.148723 -0.919051
vn -0.580751 0.154249 -0.799335
vn -0.799335 0.154249 -0.580751
vn -0.899099 0.150276 -0.411142
vn -0.914083 0.148128 -0.377505
vn -0.399048 0.297219 -0.867422
vn -0.367848 0.293532 -0.882342
vn -0.559819 0.304789 -0.770524
vn -0.770524 0.304789 -0.559818
vn -0.864898 0.296785 -0.404808
vn -0.877642 0.292365 -0.379825
vn -0.389590 0.436390 -0.811038
vn -0.373828 0.430374 -0.821603
vn -0.525502 0.447994 -0.723291
vn -0.723291 0.447994 -0.525502
vn -0.808663 0.435795 -0.395154
vn -0.817398 0.428697 -0.384810
vn -0.378548 0.564301 -0.733666
vn -0.385161 0.554831 -0.737437
vn -0.478652 0.580401 -0.658808
vn -0.658808 0.580401 -0.478652
vn -0.731490 0.563613 -0.383749
vn -0.734051 0.552796 -0.394443
vn -0.368844 0.677172 -0.636705
vn -0.405873 0.661597 -0.630520
vn -0.420460 0.698789 -0.578712
vn -0.578713 0.698789 -0.420459
vn -0.634781 0.676495 -0.373372
vn -0.628464 0.659592 -0.412275
vn -0.365921 0.770732 -0.521608
vn -0.443358 0.743069 -0.501280
vn -0.352474 0.800252 -0.485138
vn -0.485139 0.800252 -0.352474
vn -0.520027 0.770259 -0.369151
vn -0.501452 0.742138 -0.444721
vn -0.381214 0.838539 -0.389267
vn -0.511785 0.784917 -0.349257
vn -0.276701 0.882266 -0.380846
vn -0.380846 0.882266 -0.276701
vn -0.388265 0.838784 -0.381697
vn -0.353374 0.788211 -0.503836
vn -0.443756 0.863935 -0.238110
vn -0.638243 0.750215 -0.172695
vn -0.196072 0.942722 -0.269870
vn -0.269870 0.942723 -0.196072
vn -0.238485 0.867052 -0.437431
vn -0.183981 0.768626 -0.612671
vn -0.547836 0.823432 -0.147767
vn -0.774619 0.630423 -0.050329
vn -0.173573 0.955235 -0.239580
vn -0.239665 0.955018 -0.174647
vn -0.152544 0.836010 -0.527085
vn -0.061820 0.675235 -0.735007
vn -0.455999 -0.747188 -0.483503
vn -0.455999 0.747188 -0.483503
vn 0.676400 -0.716184 -0.171941
vn 0.676400 -0.716184 -0.171941
vn 0.676400 -0.716184 -0.171941
vn 0.676400 -0.716184 -0.171941
vn -0.178714 -0.744396 0.643379
vn -0.178714 -0.744396 0.643379
vn -0.178714 -0.744396 0.643379
vn -0.178714 -0.744396 0.643379
vn 0.733266 -0.628185 -0.260202
vn 0.733266 -0.628185 -0.260202
vn 0.733266 -0.628185 -0.260202
vn 0.733266 -0.628185 -0.260202
vn -0.273378 -0.659993 0.699767
vn -0.273378 -0.659993 0.699767
vn -0.273378 -0.659993 0.699767
vn -0.273378 -0.659993 0.699767
vn 0.775515 -0.538297 -0.329868
vn 0.775515 -0.538297 -0.329868
vn 0.775515 -0.538297 -0.329868
vn 0.775515 -0.538297 -0.329868
vn -0.349742 -0.570727 0.742934
vn -0.349742 -0.570727 0.742934
vn -0.349742 -0.570727 0.742934
vn -0.349742 -0.570727 0.742934
vn 0.806594 -0.449481 -0.383893
vn 0.806593 -0.449481 -0.383893
vn 0.806593 -0.449481 -0.383893
vn 0.806593 -0.449481 -0.383893
vn -0.410039 -0.480094 0.775486
vn -0.410039 -0.480094 0.775486
vn -0.410039 -0.480094 0.775486
vn -0.410039 -0.480094 0.775486
vn 0.829212 -0.362999 -0.425017
vn 0.829212 -0.362999 -0.425017
vn 0.829212 -0.362999 -0.425017
vn 0.829212 -0.362999 -0.425017
vn -0.456597 -0.389971 0.799651
vn -0.456597 -0.389971 0.799651
vn -0.456597 -0.389971 0.799651
vn -0.456597 -0.389971 0.799651
vn 0.845360 -0.279117 -0.455478
vn 0.845360 -0.279117 -0.455478
vn 0.845360 -0.279117 -0.455478
vn 0.845360 -0.279117 -0.455478
vn -0.491461 -0.301168 0.817168
vn -0.491461 -0.301168 0.817168
vn -0.491461 -0.301168 0.817168
vn -0.491461 -0.301168 0.817168
vn 0.856429 -0.197566 -0.476966
vn 0.856429 -0.197566 -0.476966
vn 0.856429 -0.197566 -0.476966
vn 0.856429 -0.197566 -0.476966
vn -0.516251 -0.213838 0.829312
vn -0.516251 -0.213838 0.829312
vn -0.516251 -0.213838 0.829312
vn -0.516251 -0.213838 0.829312
vn 0.863346 -0.117800 -0.490670
vn 0.863346 -0.117800 -0.490670
vn 0.863346 -0.117800 -0.490670
vn 0.863346 -0.117800 -0.490670
vn -0.532146 -0.127757 0.836958
vn -0.532146 -0.127757 0.836958
vn -0.532146 -0.127757 0.836958
vn -0.532146 -0.127757 0.836958
vn 0.866672 -0.039142 -0.497341
vn 0.866672 -0.039142 -0.497341
vn 0.866672 -0.039142 -0.497341
vn 0.866672 -0.039142 -0.497341
vn -0.539908 -0.042492 0.840651
vn -0.539908 -0.042492 0.840651
vn -0.539908 -0.042492 0.840651
vn -0.539908 -0.042492 0.840651
vn 0.866672 0.039142 -0.497341
vn 0.866672 0.039142 -0.497341
vn 0.866672 0.039142 -0.497341
vn 0.866672 0.039142 -0.497341
vn -0.539908 0.042492 0.840651
vn -0.539908 0.042492 0.840651
vn -0.539908 0.042492 0.840651
vn -0.539908 0.042492 0.840651
vn 0.863346 0.117800 -0.490670
vn 0.863346 0.117800 -0.490670
vn 0.863346 0.117800 -0.490670
vn 0.863346 0.117800 -0.490670
vn -0.532146 0.127757 0.836958
vn -0.532146 0.127757 0.836958
vn -0.532146 0.127757 0.836958
vn -0.532146 0.127757 0.836958
vn 0.856429 0.197566 -0.476966
vn 0.856429 0.197566 -0.476966
vn 0.856429 0.197566 -0.476966
vn 0.856429 0.197566 -0.476966
vn -0.516251 0.213838 0.829312
vn -0.516251 0.213838 0.829312
vn -0.516251 0.213838 0.829312
vn -0.516251 0.213838 0.829312
vn 0.845360 0.279117 -0.455478
vn 0.845360 0.279117 -0.455478
vn 0.845360 0.279117 -0.455478
vn 0.845360 0.279117 -0.455478
vn -0.491461 0.301168 0.817168
vn -0.491461 0.301168 0.817168
vn -0.491461 0.301168 0.817168
vn -0.491461 0.301168 0.817168
vn 0.829212 0.362999 -0.425017
vn 0.829212 0.362999 -0.425017
vn 0.829212 0.362999 -0.425017
vn 0.829212 0.362999 -0.425017
vn -0.456597 0.389971 0.799651
vn -0.456597 0.389971 0.799651
vn -0.456597 0.389971 0.799651
vn -0.456597 0.389971 0.799651
vn 0.806594 0.449481 -0.383893
vn 0.806593 0.449481 -0.383893
vn 0.806594 0.449481 -0.383893
vn 0.806594 0.449481 -0.383893
vn -0.410038 0.480094 0.775486
vn -0.410038 0.480093 0.775486
vn -0.410039 0.480094 0.775486
vn -0.410039 0.480094 0.775486
vn 0.775515 0.538297 -0.329868
vn 0.775515 0.538297 -0.329868
vn 0.775515 0.538297 -0.329868
vn 0.775515 0.538297 -0.329868
vn -0.349742 0.570727 0.742934
vn -0.349742 0.570727 0.742934
vn -0.349742 0.570727 0.742934
vn -0.349742 0.570727 0.742934
vn 0.733266 0.628185 -0.260202
vn 0.733266 0.628185 -0.260202
vn 0.733266 0.628185 -0.260202
vn 0.733266 0.628185 -0.260202
vn -0.273378 0.659993 0.699767
vn -0.273378 0.659993 0.699767
vn -0.273378 0.659993 0.699767
vn -0.273378 0.659993 0.699767
vn 0.676400 0.716184 -0.171941
vn 0.676400 0.716184 -0.171941
vn 0.676400 0.716184 -0.171941
vn 0.676400 0.716184 -0.171941
vn -0.178714 0.744396 0.643379
vn -0.178714 0.744396 0.643379
vn -0.178714 0.744396 0.643379
vn -0.178714 0.744396 0.643379
vn 0.601083 -0.796723 -0.062703
vn 0.601083 -0.796723 -0.062703
vn 0.601083 -0.796723 -0.062703
vn 0.601083 -0.796723 -0.062703
vn -0.064399 -0.818273 0.571211
vn -0.064399 -0.818273 0.571211
vn -0.064399 -0.818273 0.571211
vn -0.064399 -0.818273 0.571211
vn 0.601083 0.796723 -0.062703
vn 0.601083 0.796723 -0.062703
vn 0.601083 0.796723 -0.062703
vn 0.601083 0.796723 -0.062703
vn -0.064399 0.818273 0.571211
vn -0.064399 0.818273 0.571211
vn -0.064399 0.818273 0.571211
vn -0.064399 0.818273 0.571211
s 1
g polySurface2
usemtl blinn1SG
f 1/1/1 2/2/2 8/3/3 7/4/4
f 2/2/2 3/5/5 9/6/6 8/3/3
f 3/5/5 4/7/7 10/8/8 9/6/6
f 4/7/7 5/9/9 11/10/10 10/8/8
f 5/9/9 6/11/11 12/12/12 11/10/10
f 7/4/4 8/3/3 14/13/13 13/14/14
f 8/3/3 9/6/6 15/15/15 14/13/13
f 9/6/6 10/8/8 16/16/16 15/15/15
f 10/8/8 11/10/10 17/17/17 16/16/16
f 11/10/10 12/12/12 18/18/18 17/17/17
f 13/14/14 14/13/13 20/19/19 19/20/20
f 14/13/13 15/15/15 21/21/21 20/19/19
f 15/15/15 16/16/16 22/22/22 21/21/21
f 16/16/16 17/17/17 23/23/23 22/22/22
f 17/17/17 18/18/18 24/24/24 23/23/23
f 19/20/20 20/19/19 26/25/25 25/26/26
f 20/19/19 21/21/21 27/27/27 26/25/25
f 21/21/21 22/22/22 28/28/28 27/27/27
f 22/22/22 23/23/23 29/29/29 28/28/28
f 23/23/23 24/24/24 30/30/30 29/29/29
f 25/26/26 26/25/25 32/31/31 31/32/32
f 26/25/25 27/27/27 33/33/33 32/31/31
f 27/27/27 28/28/28 34/34/34 33/33/33
f 28/28/28 29/29/29 35/35/35 34/34/34
f 29/29/29 30/30/30 36/36/36 35/35/35
f 31/32/32 32/31/31 38/37/37 37/38/38
f 32/31/31 33/33/33 39/39/39 38/37/37
f 33/33/33 34/34/34 40/40/40 39/39/39
f 34/34/34 35/35/35 41/41/41 40/40/40
f 35/35/35 36/36/36 42/42/42 41/41/41
f 37/38/38 38/37/37 44/43/43 43/44/44
f 38/37/37 39/39/39 45/45/45 44/43/43
f 39/39/39 40/40/40 46/46/46 45/45/45
f 40/40/40 41/41/41 47/47/47 46/46/46
f 41/41/41 42/42/42 48/48/48 47/47/47
f 43/44/44 44/43/43 50/49/49 49/50/50
f 44/43/43 45/45/45 51/51/51 50/49/49
f 45/45/45 46/46/46 52/52/52 51/51/51
f 46/46/46 47/47/47 53/53/53 52/52/52
f 47/47/47 48/48/48 54/54/54 53/53/53
f 49/50/50 50/49/49 56/55/55 55/56/56
f 50/49/49 51/51/51 57/57/57 56/55/55
f 51/51/51 52/52/52 58/58/58 57/57/57
f 52/52/52 53/53/53 59/59/59 58/58/58
f 53/53/53 54/54/54 60/60/60 59/59/59
f 55/56/56 56/55/55 62/61/61 61/62/62
f 56/55/55 57/57/57 63/63/63 62/61/61
f 57/57/57 58/58/58 64/64/64 63/63/63
f 58/58/58 59/59/59 65/65/65 64/64/64
f 59/59/59 60/60/60 66/66/66 65/65/65
f 61/62/62 62/61/61 68/67/67 67/68/68
f 62/61/61 63/63/63 69/69/69 68/67/67
f 63/63/63 64/64/64 70/70/70 69/69/69
f 64/64/64 65/65/65 71/71/71 70/70/70
f 65/65/65 66/66/66 72/72/72 71/71/71
f 67/68/68 68/67/67 74/73/73 73/74/74
f 68/67/67 69/69/69 75/75/75 74/73/73
f 69/69/69 70/70/70 76/76/76 75/75/75
f 70/70/70 71/71/71 77/77/77 76/76/76
f 71/71/71 72/72/72 78/78/78 77/77/77
f 73/74/74 74/73/73 80/79/79 79/80/80
f 74/73/73 75/75/75 81/81/81 80/79/79
f 75/75/75 76/76/76 82/82/82 81/81/81
f 76/76/76 77/77/77 83/83/83 82/82/82
f 77/77/77 78/78/78 84/84/84 83/83/83
f 79/80/80 80/79/79 86/85/85 85/86/86
f 80/79/79 81/81/81 87/87/87 86/85/85
f 81/81/81 82/82/82 88/88/88 87/87/87
f 82/82/82 83/83/83 89/89/89 88/88/88
f 83/83/83 84/84/84 90/90/90 89/89/89
f 85/86/86 86/85/85 92/91/91 91/92/92
f 86/85/85 87/87/87 93/93/93 92/91/91
f 87/87/87 88/88/88 94/94/94 93/93/93
f 88/88/88 89/89/89 95/95/95 94/94/94
f 89/89/89 90/90/90 96/96/96 95/95/95
f 91/92/92 92/91/91 98/97/97 97/98/98
f 92/91/91 93/93/93 99/99/99 98/97/97
f 93/93/93 94/94/94 100/100/100 99/99/99
f 94/94/94 95/95/95 101/101/101 100/100/100
f 95/95/95 96/96/96 102/102/102 101/101/101
f 97/98/98 98/97/97 104/103/103 103/104/104
f 98/97/97 99/99/99 105/105/105 104/103/103
f 99/99/99 100/100/100 106/106/106 105/105/105
f 100/100/100 101/101/101 107/107/107 106/106/106
f 101/101/101 102/102/102 108/108/108 107/107/107
f 103/104/104 104/103/103 110/109/109 109/110/110
f 104/103/103 105/105/105 111/111/111 110/109/109
f 105/105/105 106/106/106 112/112/112 111/111/111
f 106/106/106 107/107/107 113/113/113 112/112/112
f 107/107/107 108/108/108 114/114/114 113/113/113
f 2/2/2 1/1/1 115/115/115
f 3/5/5 2/2/2 115/116/115
f 4/7/7 3/5/5 115/117/115
f 5/9/9 4/7/7 115/118/115
f 6/11/11 5/9/9 115/119/115
f 109/110/110 110/109/109 116/120/116
f 110/109/109 111/111/111 116/121/116
f 111/111/111 112/112/112 116/122/116
f 112/112/112 113/113/113 116/123/116
f 113/113/113 114/114/114 116/124/116
s 2
f 117/125/117 118/126/118 124/127/119 123/128/120
f 118/126/118 119/129/121 125/130/122 124/127/119
f 119/129/121 120/131/123 126/132/124 125/130/122
f 120/131/123 121/133/125 127/134/126 126/132/124
f 121/133/125 122/135/127 128/136/128 127/134/126
f 123/128/120 124/127/119 130/137/129 129/138/130
f 124/127/119 125/130/122 131/139/131 130/137/129
f 125/130/122 126/132/124 132/140/132 131/139/131
f 126/132/124 127/134/126 133/141/133 132/140/132
f 127/134/126 128/136/128 134/142/134 133/141/133
f 129/138/130 130/137/129 136/143/135 135/144/136
f 130/137/129 131/139/131 137/145/137 136/143/135
f 131/139/131 132/140/132 138/146/138 137/145/137
f 132/140/132 133/141/133 139/147/139 138/146/138
f 133/141/133 134/142/134 140/148/140 139/147/139
f 135/144/136 136/143/135 142/149/141 141/150/142
f 136/143/135 137/145/137 143/151/143 142/149/141
f 137/145/137 138/146/138 144/152/144 143/151/143
f 138/146/138 139/147/139 145/153/145 144/152/144
f 139/147/139 140/148/140 146/154/146 145/153/145
f 141/150/142 142/149/141 148/155/147 147/156/148
f 142/149/141 143/151/143 149/157/149 148/155/147
f 143/151/143 144/152/144 150/158/150 149/157/149
f 144/152/144 145/153/145 151/159/151 150/158/150
f 145/153/145 146/154/146 152/160/152 151/159/151
f 147/156/148 148/155/147 154/161/153 153/162/154
f 148/155/147 149/157/149 155/163/155 154/161/153
f 149/157/149 150/158/150 156/164/156 155/163/155
f 150/158/150 151/159/151 157/165/157 156/164/156
f 151/159/151 152/160/152 158/166/158 157/165/157
f 153/162/154 154/161/153 160/167/159 159/168/160
f 154/161/153 155/163/155 161/169/161 160/167/159
f 155/163/155 156/164/156 162/170/162 161/169/161
f 156/164/156 157/165/157 163/171/163 162/170/162
f 157/165/157 158/166/158 164/172/164 163/171/163
f 159/168/160 160/167/159 166/173/165 165/174/166
f 160/167/159 161/169/161 167/175/167 166/173/165
f 161/169/161 162/170/162 168/176/168 167/175/167
f 162/170/162 163/171/163 169/177/169 168/176/168
f 163/171/163 164/172/164 170/178/170 169/177/169
f 165/174/166 166/173/165 172/179/171 171/180/172
f 166/173/165 167/175/167 173/181/173 172/179/171
f 167/175/167 168/176/168 174/182/174 173/181/173
f 168/176/168 169/177/169 175/183/175 174/182/174
f 169/177/169 170/178/170 176/184/176 175/183/175
f 171/180/172 172/179/171 178/185/177 177/186/178
f 172/179/171 173/181/173 179/187/179 178/185/177
f 173/181/173 174/182/174 180/188/180 179/187/179
f 174/182/174 175/183/175 181/189/181 180/188/180
f 175/183/175 176/184/176 182/190/182 181/189/181
f 177/186/178 178/185/177 184/191/183 183/192/184
f 178/185/177 179/187/179 185/193/185 184/191/183
f 179/187/179 180/188/180 186/194/186 185/193/185
f 180/188/180 181/189/181 187/195/187 186/194/186
f 181/189/181 182/190/182 188/196/188 187/195/187
f 183/192/184 184/191/183 190/197/189 189/198/190
f 184/191/183 185/193/185 191/199/191 190/197/189
f 185/193/185 186/194/186 192/200/192 191/199/191
f 186/194/186 187/195/187 193/201/193 192/200/192
f 187/195/187 188/196/188 194/202/194 193/201/193
f 189/198/190 190/197/189 196/203/195 195/204/196
f 190/197/189 191/199/191 197/205/197 196/203/195
f 191/199/191 192/200/192 198/206/198 197/205/197
f 192/200/192 193/201/193 199/207/199 198/206/198
f 193/201/193 194/202/194 200/208/200 199/207/199
f 195/204/196 196/203/195 202/209/201 201/210/202
f 196/203/195 197/205/197 203/211/203 202/209/201
f 197/205/197 198/206/198 204/212/204 203/211/203
f 198/206/198 199/207/199 205/213/205 204/212/204
f 199/207/199 200/208/200 206/214/206 205/213/205
f 201/210/202 202/209/201 208/215/207 207/216/208
f 202/209/201 203/211/203 209/217/209 208/215/207
f 203/211/203 204/212/204 210/218/210 209/217/209
f 204/212/204 205/213/205 211/219/211 210/218/210
f 205/213/205 206/214/206 212/220/212 211/219/211
f 207/216/208 208/215/207 214/221/213 213/222/214
f 208/215/207 209/217/209 215/223/215 214/221/213
f 209/217/209 210/218/210 216/224/216 215/223/215
f 210/218/210 211/219/211 217/225/217 216/224/216
f 211/219/211 212/220/212 218/226/218 217/225/217
f 213/222/214 214/221/213 220/227/219 219/228/220
f 214/221/213 215/223/215 221/229/221 220/227/219
f 215/223/215 216/224/216 222/230/222 221/229/221
f 216/224/216 217/225/217 223/231/223 222/230/222
f 217/225/217 218/226/218 224/232/224 223/231/223
f 219/228/220 220/227/219 226/233/225 225/234/226
f 220/227/219 221/229/221 227/235/227 226/233/225
f 221/229/221 222/230/222 228/236/228 227/235/227
f 222/230/222 223/231/223 229/237/229 228/236/228
f 223/231/223 224/232/224 230/238/230 229/237/229
f 118/126/118 117/125/117 231/239/231
f 119/129/121 118/126/118 231/240/231
f 120/131/123 119/129/121 231/241/231
f 121/133/125 120/131/123 231/242/231
f 122/135/127 121/133/125 231/243/231
f 225/234/226 226/233/225 232/244/232
f 226/233/225 227/235/227 232/245/232
f 227/235/227 228/236/228 232/246/232
f 228/236/228 229/237/229 232/247/232
f 229/237/229 230/238/230 232/248/232
s off
f 1/249/233 7/250/234 123/251/235 117/252/236
f 12/253/237 6/254/238 122/255/239 128/256/240
f 7/257/241 13/258/242 129/259/243 123/260/244
f 18/261/245 12/262/246 128/263/247 134/264/248
f 13/265/249 19/266/250 135/267/251 129/268/252
f 24/269/253 18/270/254 134/271/255 140/272/256
f 19/273/257 25/274/258 141/275/259 135/276/260
f 30/277/261 24/278/262 140/279/263 146/280/264
f 25/281/265 31/282/266 147/283/267 141/284/268
f 36/285/269 30/286/270 146/287/271 152/288/272
f 31/289/273 37/290/274 153/291/275 147/292/276
f 42/293/277 36/294/278 152/295/279 158/296/280
f 37/297/281 43/298/282 159/299/283 153/300/284
f 48/301/285 42/302/286 158/303/287 164/304/288
f 43/305/289 49/306/290 165/307/291 159/308/292
f 54/309/293 48/310/294 164/311/295 170/312/296
f 49/313/297 55/314/298 171/315/299 165/316/300
f 60/317/301 54/318/302 170/319/303 176/320/304
f 55/321/305 61/322/306 177/323/307 171/324/308
f 66/325/309 60/326/310 176/327/311 182/328/312
f 61/329/313 67/330/314 183/331/315 177/332/316
f 72/333/317 66/334/318 182/335/319 188/336/320
f 67/337/321 73/338/322 189/339/323 183/340/324
f 78/341/325 72/342/326 188/343/327 194/344/328
f 73/345/329 79/346/330 195/347/331 189/348/332
f 84/349/333 78/350/334 194/351/335 200/352/336
f 79/353/337 85/354/338 201/355/339 195/356/340
f 90/357/341 84/358/342 200/359/343 206/360/344
f 85/361/345 91/362/346 207/363/347 201/364/348
f 96/365/349 90/366/350 206/367/351 212/368/352
f 91/369/353 97/370/354 213/371/355 207/372/356
f 102/373/357 96/374/358 212/375/359 218/376/360
f 97/377/361 103/378/362 219/379/363 213/380/364
f 108/381/365 102/382/366 218/383/367 224/384/368
f 103/385/369 109/386/370 225/387/371 219/388/372
f 114/389/373 108/390/374 224/391/375 230/392/376
f 115/393/377 1/394/378 117/395/379 231/396/380
f 6/397/381 115/398/382 231/399/383 122/400/384
f 109/401/385 116/402/386 232/403/387 225/404/388
f 116/405/389 114/406/390 230/407/391 232/408/392
